*** Darwin 5x4 ***
Turn = 0.
  0123
0 ..f.
1 ....
2 ....
3 ....
4 ..fr

Turn = 4.
  0123
0 ..f.
1 ....
2 ....
3 ....
4 .rr.

Turn = 8.
  0123
0 ..f.
1 ....
2 rr..
3 ....
4 ....

*** Darwin 3x5 ***
Turn = 0.
  01234
0 .....
1 .r...
2 ...f.

Turn = 3.
  01234
0 ..r..
1 .....
2 ...f.

Turn = 6.
  01234
0 ....r
1 .....
2 ...f.

*** Darwin 4x4 ***
Turn = 0.
  0123
0 ..h.
1 ....
2 ....
3 r...

*** Darwin 4x3 ***
Turn = 0.
  012
0 ..t
1 ...
2 t..
3 f..

Turn = 1.
  012
0 ..t
1 ...
2 t..
3 f..

Turn = 2.
  012
0 ..t
1 ...
2 t..
3 f..

Turn = 3.
  012
0 ..t
1 ...
2 t..
3 t..

Turn = 4.
  012
0 ..t
1 ...
2 t..
3 t..

Turn = 5.
  012
0 ..t
1 ...
2 t..
3 t..

Turn = 6.
  012
0 ..t
1 ...
2 t..
3 t..

Turn = 7.
  012
0 ..t
1 ...
2 t..
3 t..

Turn = 8.
  012
0 ..t
1 ...
2 t..
3 t..

Turn = 9.
  012
0 ..t
1 ...
2 t..
3 t..

*** Darwin 5x3 ***
Turn = 0.
  012
0 ..f
1 .f.
2 f..
3 ...
4 ...

Turn = 2.
  012
0 ..f
1 .f.
2 f..
3 ...
4 ...

Turn = 4.
  012
0 ..f
1 .f.
2 f..
3 ...
4 ...

Turn = 6.
  012
0 ..f
1 .f.
2 f..
3 ...
4 ...

Turn = 8.
  012
0 ..f
1 .f.
2 f..
3 ...
4 ...

*** Darwin 4x5 ***
Turn = 0.
  01234
0 .....
1 ..tf.
2 ...h.
3 .....

Turn = 4.
  01234
0 .....
1 ..tt.
2 ..t..
3 .....

Turn = 8.
  01234
0 .....
1 ..tt.
2 ..t..
3 .....

*** Darwin 3x3 ***
Turn = 0.
  012
0 rr.
1 ..t
2 ...

*** Darwin 4x3 ***
Turn = 0.
  012
0 ...
1 h..
2 .h.
3 .t.

Turn = 2.
  012
0 ...
1 ..h
2 .t.
3 .t.

Turn = 4.
  012
0 ...
1 ..h
2 .t.
3 .t.

*** Darwin 4x3 ***
Turn = 0.
  012
0 ...
1 ...
2 .tf
3 ...

Turn = 1.
  012
0 ...
1 ...
2 .tt
3 ...

Turn = 2.
  012
0 ...
1 ...
2 .tt
3 ...

Turn = 3.
  012
0 ...
1 ...
2 .tt
3 ...

Turn = 4.
  012
0 ...
1 ...
2 .tt
3 ...

Turn = 5.
  012
0 ...
1 ...
2 .tt
3 ...

Turn = 6.
  012
0 ...
1 ...
2 .tt
3 ...

Turn = 7.
  012
0 ...
1 ...
2 .tt
3 ...

*** Darwin 3x3 ***
Turn = 0.
  012
0 h..
1 ...
2 ..t

Turn = 3.
  012
0 ..h
1 ...
2 ..t

*** Darwin 3x4 ***
Turn = 0.
  0123
0 ....
1 ..r.
2 tr..

Turn = 3.
  0123
0 ....
1 r...
2 .rr.

*** Darwin 4x5 ***
Turn = 0.
  01234
0 .....
1 .....
2 ..h..
3 ...rf

Turn = 5.
  01234
0 .....
1 ...r.
2 .....
3 ..r.f

*** Darwin 3x4 ***
Turn = 0.
  0123
0 .r.h
1 ....
2 .f..

Turn = 5.
  0123
0 r..h
1 ....
2 .f..

*** Darwin 4x4 ***
Turn = 0.
  0123
0 t...
1 ....
2 ..rr
3 ....

Turn = 1.
  0123
0 t...
1 ....
2 .rr.
3 ....

Turn = 2.
  0123
0 t...
1 ....
2 rr..
3 ....

*** Darwin 3x3 ***
Turn = 0.
  012
0 ..r
1 .f.
2 ..f

Turn = 1.
  012
0 ..r
1 .f.
2 ..f

Turn = 2.
  012
0 ...
1 .fr
2 ..f

Turn = 3.
  012
0 ...
1 .fr
2 ..r

Turn = 4.
  012
0 ...
1 .fr
2 ..r

*** Darwin 3x5 ***
Turn = 0.
  01234
0 ..rrh
1 .....
2 .....

Turn = 4.
  01234
0 r..r.
1 ....r
2 .....

*** Darwin 4x4 ***
Turn = 0.
  0123
0 ....
1 .t..
2 .t..
3 ....

Turn = 2.
  0123
0 ....
1 .t..
2 .t..
3 ....

Turn = 4.
  0123
0 ....
1 .t..
2 .t..
3 ....

Turn = 6.
  0123
0 ....
1 .t..
2 .t..
3 ....

*** Darwin 4x4 ***
Turn = 0.
  0123
0 ....
1 ..t.
2 .r..
3 .r..

Turn = 4.
  0123
0 ....
1 ..t.
2 r...
3 r...

*** Darwin 3x3 ***
Turn = 0.
  012
0 .r.
1 f.f
2 ...

Turn = 3.
  012
0 r..
1 f.f
2 ...

*** Darwin 3x5 ***
Turn = 0.
  01234
0 ....h
1 ....f
2 ..h..

Turn = 2.
  01234
0 ....h
1 ....f
2 ....h

Turn = 4.
  01234
0 ....h
1 ....f
2 ....h

Turn = 6.
  01234
0 ....h
1 ....f
2 ....h

Turn = 8.
  01234
0 ....h
1 ....f
2 ....h

*** Darwin 4x5 ***
Turn = 0.
  01234
0 ...h.
1 ..f..
2 .....
3 ...r.

Turn = 5.
  01234
0 ...h.
1 ..f..
2 .....
3 ....r

*** Darwin 4x3 ***
Turn = 0.
  012
0 ..h
1 ...
2 .f.
3 t..

*** Darwin 3x5 ***
Turn = 0.
  01234
0 ...ff
1 .....
2 ...h.

Turn = 4.
  01234
0 ...ff
1 ...h.
2 .....

*** Darwin 3x4 ***
Turn = 0.
  0123
0 .r.h
1 ..t.
2 ....

Turn = 4.
  0123
0 ..tr
1 ..t.
2 ....

*** Darwin 5x4 ***
Turn = 0.
  0123
0 .f..
1 .t..
2 ....
3 ....
4 ...t

Turn = 2.
  0123
0 .f..
1 .t..
2 ....
3 ....
4 ...t

*** Darwin 4x3 ***
Turn = 0.
  012
0 ..t
1 ...
2 ..f
3 r..

Turn = 1.
  012
0 ..t
1 ...
2 ..f
3 r..

Turn = 2.
  012
0 ..t
1 ...
2 r.f
3 ...

Turn = 3.
  012
0 ..t
1 r..
2 ..f
3 ...

Turn = 4.
  012
0 r.t
1 ...
2 ..f
3 ...

Turn = 5.
  012
0 r.t
1 ...
2 ..f
3 ...

Turn = 6.
  012
0 r.t
1 ...
2 ..f
3 ...

Turn = 7.
  012
0 r.t
1 ...
2 ..f
3 ...

*** Darwin 4x5 ***
Turn = 0.
  01234
0 f....
1 .....
2 ....r
3 ..h..

*** Darwin 5x5 ***
Turn = 0.
  01234
0 ....r
1 .....
2 ...t.
3 ..r..
4 .....

Turn = 4.
  01234
0 ..r..
1 .....
2 ...t.
3 .....
4 ....r

*** Darwin 4x5 ***
Turn = 0.
  01234
0 .t...
1 .....
2 r....
3 ...h.

Turn = 2.
  01234
0 rt...
1 .....
2 .....
3 ...h.

Turn = 4.
  01234
0 rr...
1 .....
2 .....
3 ...h.
