*** Darwin 5x4 ***
Turn = 0.
  0123
0 ....
1 ....
2 ....
3 ...f
4 ....

Turn = 1.
  0123
0 ....
1 ....
2 ....
3 ...f
4 ....

Turn = 2.
  0123
0 ....
1 ....
2 ....
3 ...f
4 ....

Turn = 3.
  0123
0 ....
1 ....
2 ....
3 ...f
4 ....

Turn = 4.
  0123
0 ....
1 ....
2 ....
3 ...f
4 ....

Turn = 5.
  0123
0 ....
1 ....
2 ....
3 ...f
4 ....

Turn = 6.
  0123
0 ....
1 ....
2 ....
3 ...f
4 ....

Turn = 7.
  0123
0 ....
1 ....
2 ....
3 ...f
4 ....

Turn = 8.
  0123
0 ....
1 ....
2 ....
3 ...f
4 ....

Turn = 9.
  0123
0 ....
1 ....
2 ....
3 ...f
4 ....

Turn = 10.
  0123
0 ....
1 ....
2 ....
3 ...f
4 ....

Turn = 11.
  0123
0 ....
1 ....
2 ....
3 ...f
4 ....

Turn = 12.
  0123
0 ....
1 ....
2 ....
3 ...f
4 ....

Turn = 13.
  0123
0 ....
1 ....
2 ....
3 ...f
4 ....

Turn = 14.
  0123
0 ....
1 ....
2 ....
3 ...f
4 ....

Turn = 15.
  0123
0 ....
1 ....
2 ....
3 ...f
4 ....

Turn = 16.
  0123
0 ....
1 ....
2 ....
3 ...f
4 ....

Turn = 17.
  0123
0 ....
1 ....
2 ....
3 ...f
4 ....

Turn = 18.
  0123
0 ....
1 ....
2 ....
3 ...f
4 ....

Turn = 19.
  0123
0 ....
1 ....
2 ....
3 ...f
4 ....

Turn = 20.
  0123
0 ....
1 ....
2 ....
3 ...f
4 ....

*** Darwin 7x7 ***
Turn = 0.
  0123456
0 .......
1 .......
2 .......
3 .......
4 .......
5 ..r....
6 .......

Turn = 1.
  0123456
0 .......
1 .......
2 .......
3 .......
4 ..r....
5 .......
6 .......

Turn = 2.
  0123456
0 .......
1 .......
2 .......
3 ..r....
4 .......
5 .......
6 .......

Turn = 3.
  0123456
0 .......
1 .......
2 ..r....
3 .......
4 .......
5 .......
6 .......

Turn = 4.
  0123456
0 .......
1 ..r....
2 .......
3 .......
4 .......
5 .......
6 .......

Turn = 5.
  0123456
0 ..r....
1 .......
2 .......
3 .......
4 .......
5 .......
6 .......

Turn = 6.
  0123456
0 ..r....
1 .......
2 .......
3 .......
4 .......
5 .......
6 .......

Turn = 7.
  0123456
0 ...r...
1 .......
2 .......
3 .......
4 .......
5 .......
6 .......

Turn = 8.
  0123456
0 ....r..
1 .......
2 .......
3 .......
4 .......
5 .......
6 .......

Turn = 9.
  0123456
0 .....r.
1 .......
2 .......
3 .......
4 .......
5 .......
6 .......

Turn = 10.
  0123456
0 ......r
1 .......
2 .......
3 .......
4 .......
5 .......
6 .......

Turn = 11.
  0123456
0 ......r
1 .......
2 .......
3 .......
4 .......
5 .......
6 .......

Turn = 12.
  0123456
0 ......r
1 .......
2 .......
3 .......
4 .......
5 .......
6 .......

Turn = 13.
  0123456
0 ......r
1 .......
2 .......
3 .......
4 .......
5 .......
6 .......

Turn = 14.
  0123456
0 .......
1 ......r
2 .......
3 .......
4 .......
5 .......
6 .......

Turn = 15.
  0123456
0 .......
1 .......
2 ......r
3 .......
4 .......
5 .......
6 .......

Turn = 16.
  0123456
0 .......
1 .......
2 .......
3 ......r
4 .......
5 .......
6 .......

Turn = 17.
  0123456
0 .......
1 .......
2 .......
3 .......
4 ......r
5 .......
6 .......

Turn = 18.
  0123456
0 .......
1 .......
2 .......
3 .......
4 .......
5 ......r
6 .......

Turn = 19.
  0123456
0 .......
1 .......
2 .......
3 .......
4 .......
5 .......
6 ......r

Turn = 20.
  0123456
0 .......
1 .......
2 .......
3 .......
4 .......
5 .......
6 ......r

*** Darwin 6x5 ***
Turn = 0.
  01234
0 .....
1 .....
2 .....
3 .t...
4 .f...
5 .....

Turn = 1.
  01234
0 .....
1 .....
2 .....
3 .t...
4 .f...
5 .....

Turn = 2.
  01234
0 .....
1 .....
2 .....
3 .t...
4 .t...
5 .....

Turn = 3.
  01234
0 .....
1 .....
2 .....
3 .t...
4 .t...
5 .....

Turn = 4.
  01234
0 .....
1 .....
2 .....
3 .t...
4 .t...
5 .....

Turn = 5.
  01234
0 .....
1 .....
2 .....
3 .t...
4 .t...
5 .....

Turn = 6.
  01234
0 .....
1 .....
2 .....
3 .t...
4 .t...
5 .....

Turn = 7.
  01234
0 .....
1 .....
2 .....
3 .t...
4 .t...
5 .....

Turn = 8.
  01234
0 .....
1 .....
2 .....
3 .t...
4 .t...
5 .....

Turn = 9.
  01234
0 .....
1 .....
2 .....
3 .t...
4 .t...
5 .....

Turn = 10.
  01234
0 .....
1 .....
2 .....
3 .t...
4 .t...
5 .....

Turn = 11.
  01234
0 .....
1 .....
2 .....
3 .t...
4 .t...
5 .....

Turn = 12.
  01234
0 .....
1 .....
2 .....
3 .t...
4 .t...
5 .....

Turn = 13.
  01234
0 .....
1 .....
2 .....
3 .t...
4 .t...
5 .....

Turn = 14.
  01234
0 .....
1 .....
2 .....
3 .t...
4 .t...
5 .....

Turn = 15.
  01234
0 .....
1 .....
2 .....
3 .t...
4 .t...
5 .....

Turn = 16.
  01234
0 .....
1 .....
2 .....
3 .t...
4 .t...
5 .....

Turn = 17.
  01234
0 .....
1 .....
2 .....
3 .t...
4 .t...
5 .....

Turn = 18.
  01234
0 .....
1 .....
2 .....
3 .t...
4 .t...
5 .....

Turn = 19.
  01234
0 .....
1 .....
2 .....
3 .t...
4 .t...
5 .....

Turn = 20.
  01234
0 .....
1 .....
2 .....
3 .t...
4 .t...
5 .....

*** Darwin 5x4 ***
Turn = 0.
  0123
0 ....
1 .t..
2 ....
3 ....
4 ...t

Turn = 1.
  0123
0 ....
1 .t..
2 ....
3 ....
4 ...t

Turn = 2.
  0123
0 ....
1 .t..
2 ....
3 ....
4 ...t

Turn = 3.
  0123
0 ....
1 .t..
2 ....
3 ....
4 ...t

Turn = 4.
  0123
0 ....
1 .t..
2 ....
3 ....
4 ...t

Turn = 5.
  0123
0 ....
1 .t..
2 ....
3 ....
4 ...t

Turn = 6.
  0123
0 ....
1 .t..
2 ....
3 ....
4 ...t

Turn = 7.
  0123
0 ....
1 .t..
2 ....
3 ....
4 ...t

Turn = 8.
  0123
0 ....
1 .t..
2 ....
3 ....
4 ...t

Turn = 9.
  0123
0 ....
1 .t..
2 ....
3 ....
4 ...t

Turn = 10.
  0123
0 ....
1 .t..
2 ....
3 ....
4 ...t

Turn = 11.
  0123
0 ....
1 .t..
2 ....
3 ....
4 ...t

Turn = 12.
  0123
0 ....
1 .t..
2 ....
3 ....
4 ...t

Turn = 13.
  0123
0 ....
1 .t..
2 ....
3 ....
4 ...t

Turn = 14.
  0123
0 ....
1 .t..
2 ....
3 ....
4 ...t

Turn = 15.
  0123
0 ....
1 .t..
2 ....
3 ....
4 ...t

Turn = 16.
  0123
0 ....
1 .t..
2 ....
3 ....
4 ...t

Turn = 17.
  0123
0 ....
1 .t..
2 ....
3 ....
4 ...t

Turn = 18.
  0123
0 ....
1 .t..
2 ....
3 ....
4 ...t

Turn = 19.
  0123
0 ....
1 .t..
2 ....
3 ....
4 ...t

Turn = 20.
  0123
0 ....
1 .t..
2 ....
3 ....
4 ...t

*** Darwin 4x3 ***
Turn = 0.
  012
0 f..
1 ...
2 fr.
3 ...

Turn = 1.
  012
0 f..
1 ...
2 f..
3 .r.

Turn = 2.
  012
0 f..
1 ...
2 f..
3 .r.

Turn = 3.
  012
0 f..
1 ...
2 f..
3 r..

Turn = 4.
  012
0 f..
1 ...
2 f..
3 r..

Turn = 5.
  012
0 f..
1 ...
2 f..
3 r..

Turn = 6.
  012
0 f..
1 ...
2 f..
3 r..

Turn = 7.
  012
0 f..
1 ...
2 r..
3 r..

Turn = 8.
  012
0 f..
1 ...
2 rr.
3 ...

Turn = 9.
  012
0 f..
1 r..
2 ..r
3 ...

Turn = 10.
  012
0 r..
1 r..
2 ..r
3 ...

Turn = 11.
  012
0 rr.
1 ...
2 ...
3 ..r

Turn = 12.
  012
0 r.r
1 ...
2 ...
3 ..r

Turn = 13.
  012
0 .rr
1 ...
2 ...
3 ..r

Turn = 14.
  012
0 .rr
1 ...
2 ...
3 ..r

Turn = 15.
  012
0 .r.
1 .r.
2 ...
3 .r.

Turn = 16.
  012
0 r..
1 ...
2 .r.
3 r..

Turn = 17.
  012
0 r..
1 ...
2 ...
3 rr.

Turn = 18.
  012
0 ...
1 r..
2 r..
3 .r.

Turn = 19.
  012
0 ...
1 r..
2 r..
3 r..

Turn = 20.
  012
0 ...
1 .r.
2 r..
3 r..

*** Darwin 5x4 ***
Turn = 0.
  0123
0 ....
1 ....
2 h..r
3 r...
4 ....

Turn = 1.
  0123
0 ....
1 h...
2 ..r.
3 ....
4 r...

Turn = 2.
  0123
0 h...
1 ....
2 .r..
3 ....
4 r...

Turn = 3.
  0123
0 h...
1 ....
2 r...
3 ....
4 r...

Turn = 4.
  0123
0 h...
1 ....
2 r...
3 ....
4 r...

Turn = 5.
  0123
0 h...
1 r...
2 ....
3 ....
4 r...

Turn = 6.
  0123
0 r...
1 r...
2 ....
3 r...
4 ....

Turn = 7.
  0123
0 r...
1 r...
2 r...
3 ....
4 ....

Turn = 8.
  0123
0 .r..
1 r...
2 r...
3 ....
4 ....

Turn = 9.
  0123
0 ..r.
1 r...
2 .r..
3 ....
4 ....

Turn = 10.
  0123
0 ...r
1 r...
2 ..r.
3 ....
4 ....

Turn = 11.
  0123
0 ...r
1 ....
2 r..r
3 ....
4 ....

Turn = 12.
  0123
0 ....
1 ...r
2 ...r
3 r...
4 ....

Turn = 13.
  0123
0 ....
1 ...r
2 ...r
3 ....
4 r...

Turn = 14.
  0123
0 ....
1 ..r.
2 ...r
3 ....
4 r...

Turn = 15.
  0123
0 ....
1 .r.r
2 ....
3 ....
4 .r..

Turn = 16.
  0123
0 ...r
1 r...
2 ....
3 ....
4 ..r.

Turn = 17.
  0123
0 ...r
1 r...
2 ....
3 ....
4 ...r

Turn = 18.
  0123
0 ..r.
1 ....
2 r...
3 ....
4 ...r

Turn = 19.
  0123
0 .r..
1 ....
2 ....
3 r..r
4 ....

Turn = 20.
  0123
0 r...
1 ....
2 ...r
3 ....
4 r...

*** Darwin 6x6 ***
Turn = 0.
  012345
0 .r....
1 ......
2 ..t...
3 ......
4 ....f.
5 h.....

Turn = 1.
  012345
0 ..r...
1 ......
2 ..t...
3 ......
4 ....f.
5 .h....

Turn = 2.
  012345
0 ...r..
1 ......
2 ..t...
3 ......
4 ....f.
5 ..h...

Turn = 3.
  012345
0 ....r.
1 ......
2 ..t...
3 ......
4 ....f.
5 ...h..

Turn = 4.
  012345
0 .....r
1 ......
2 ..t...
3 ......
4 ....f.
5 ....h.

Turn = 5.
  012345
0 .....r
1 ......
2 ..t...
3 ......
4 ....f.
5 .....h

Turn = 6.
  012345
0 ......
1 .....r
2 ..t...
3 ......
4 ....f.
5 .....h

Turn = 7.
  012345
0 ......
1 ......
2 ..t..r
3 ......
4 ....f.
5 .....h

Turn = 8.
  012345
0 ......
1 ......
2 ..t...
3 .....r
4 ....f.
5 .....h

Turn = 9.
  012345
0 ......
1 ......
2 ..t...
3 ......
4 ....fr
5 .....h

Turn = 10.
  012345
0 ......
1 ......
2 ..t...
3 ......
4 ....fr
5 .....r

Turn = 11.
  012345
0 ......
1 ......
2 ..t...
3 ......
4 ....fr
5 .....r

Turn = 12.
  012345
0 ......
1 ......
2 ..t...
3 ......
4 ....rr
5 .....r

Turn = 13.
  012345
0 ......
1 ......
2 ..t...
3 ......
4 ....r.
5 ....rr

Turn = 14.
  012345
0 ......
1 ......
2 ..t...
3 ......
4 ...r..
5 ....rr

Turn = 15.
  012345
0 ......
1 ......
2 ..t...
3 ......
4 ..r...
5 ....rr

Turn = 16.
  012345
0 ......
1 ......
2 ..t...
3 ......
4 .r....
5 ....rr

Turn = 17.
  012345
0 ......
1 ......
2 ..t...
3 ......
4 r....r
5 ....r.

Turn = 18.
  012345
0 ......
1 ......
2 ..t...
3 .....r
4 r...r.
5 ......

Turn = 19.
  012345
0 ......
1 ......
2 ..t..r
3 r...r.
4 ......
5 ......

Turn = 20.
  012345
0 ......
1 .....r
2 r.t.r.
3 ......
4 ......
5 ......

*** Darwin 4x5 ***
Turn = 0.
  01234
0 ...t.
1 .....
2 r...t
3 ...h.

Turn = 1.
  01234
0 ...t.
1 r....
2 ...ht
3 .....

Turn = 2.
  01234
0 r..t.
1 ...h.
2 ....t
3 .....

Turn = 3.
  01234
0 r..t.
1 ...h.
2 ....t
3 .....

Turn = 4.
  01234
0 .r.t.
1 ...t.
2 ....t
3 .....

Turn = 5.
  01234
0 ..rt.
1 ...t.
2 ....t
3 .....

Turn = 6.
  01234
0 ..r.r
1 ...t.
2 ....t
3 .....

Turn = 7.
  01234
0 ...rr
1 ...t.
2 ....t
3 .....

Turn = 8.
  01234
0 ...tr
1 ...t.
2 ....t
3 .....

Turn = 9.
  01234
0 ...tr
1 ...t.
2 ....t
3 .....

Turn = 10.
  01234
0 ...tt
1 ...t.
2 ....t
3 .....

Turn = 11.
  01234
0 ...tt
1 ...t.
2 ....t
3 .....

Turn = 12.
  01234
0 ...tt
1 ...t.
2 ....t
3 .....

Turn = 13.
  01234
0 ...tt
1 ...t.
2 ....t
3 .....

Turn = 14.
  01234
0 ...tt
1 ...t.
2 ....t
3 .....

Turn = 15.
  01234
0 ...tt
1 ...t.
2 ....t
3 .....

Turn = 16.
  01234
0 ...tt
1 ...t.
2 ....t
3 .....

Turn = 17.
  01234
0 ...tt
1 ...t.
2 ....t
3 .....

Turn = 18.
  01234
0 ...tt
1 ...t.
2 ....t
3 .....

Turn = 19.
  01234
0 ...tt
1 ...t.
2 ....t
3 .....

Turn = 20.
  01234
0 ...tt
1 ...t.
2 ....t
3 .....

*** Darwin 5x4 ***
Turn = 0.
  0123
0 ..t.
1 ....
2 ...t
3 .rh.
4 ...r

Turn = 1.
  0123
0 ..t.
1 ....
2 ...t
3 r..h
4 ...r

Turn = 2.
  0123
0 ..t.
1 ....
2 ...t
3 r..h
4 ..r.

Turn = 3.
  0123
0 ..t.
1 ....
2 ...t
3 ...t
4 rr..

Turn = 4.
  0123
0 ..t.
1 ....
2 ...t
3 ...t
4 rr..

Turn = 5.
  0123
0 ..t.
1 ....
2 ...t
3 .r.t
4 r...

Turn = 6.
  0123
0 ..t.
1 ....
2 .r.t
3 r..t
4 ....

Turn = 7.
  0123
0 ..t.
1 .r..
2 r..t
3 ...t
4 ....

Turn = 8.
  0123
0 .rt.
1 r...
2 ...t
3 ...t
4 ....

Turn = 9.
  0123
0 rrt.
1 ....
2 ...t
3 ...t
4 ....

Turn = 10.
  0123
0 rrr.
1 ....
2 ...t
3 ...t
4 ....

Turn = 11.
  0123
0 rr..
1 ..r.
2 ...t
3 ...t
4 ....

Turn = 12.
  0123
0 r...
1 .r..
2 ..rt
3 ...t
4 ....

Turn = 13.
  0123
0 r...
1 ....
2 .r.t
3 ..tt
4 ....

Turn = 14.
  0123
0 r...
1 ....
2 ...t
3 .rtt
4 ....

Turn = 15.
  0123
0 r...
1 ....
2 ...t
3 ..tt
4 .r..

Turn = 16.
  0123
0 r...
1 ....
2 ...t
3 ..tt
4 .r..

Turn = 17.
  0123
0 .r..
1 ....
2 ...t
3 ..tt
4 ..r.

Turn = 18.
  0123
0 ..r.
1 ....
2 ...t
3 ..tt
4 ..t.

Turn = 19.
  0123
0 ...r
1 ....
2 ...t
3 ..tt
4 ..t.

Turn = 20.
  0123
0 ...r
1 ....
2 ...t
3 ..tt
4 ..t.

*** Darwin 4x4 ***
Turn = 0.
  0123
0 r.h.
1 ....
2 .fh.
3 r...

Turn = 1.
  0123
0 r...
1 ..h.
2 .f.h
3 .r..

Turn = 2.
  0123
0 .r..
1 ....
2 .fhh
3 ..r.

Turn = 3.
  0123
0 ..r.
1 ....
2 .fhh
3 ...r

Turn = 4.
  0123
0 ...r
1 ....
2 .f.h
3 ..hr

Turn = 5.
  0123
0 ...r
1 ....
2 .f.r
3 ..hr

Turn = 6.
  0123
0 ....
1 ...r
2 .f.r
3 ..hr

Turn = 7.
  0123
0 ....
1 ...r
2 .f.r
3 ..hr

Turn = 8.
  0123
0 ....
1 ..r.
2 .f.r
3 ..hr

Turn = 9.
  0123
0 ....
1 .r..
2 .f.r
3 ..hr

Turn = 10.
  0123
0 ....
1 r...
2 .f.r
3 ..hr

Turn = 11.
  0123
0 ....
1 r..r
2 .f..
3 ..rr

Turn = 12.
  0123
0 r..r
1 ....
2 .f..
3 ..rr

Turn = 13.
  0123
0 r..r
1 ....
2 .f..
3 ..rr

Turn = 14.
  0123
0 r.r.
1 ....
2 .fr.
3 ..r.

Turn = 15.
  0123
0 .r..
1 r.r.
2 .f..
3 .r..

Turn = 16.
  0123
0 r.r.
1 ....
2 rf..
3 r...

Turn = 17.
  0123
0 r.r.
1 ....
2 rf..
3 r...

Turn = 18.
  0123
0 r..r
1 ....
2 rr..
3 r...

Turn = 19.
  0123
0 r..r
1 .r..
2 r...
3 r...

Turn = 20.
  0123
0 rr..
1 r..r
2 ....
3 r...

*** Darwin 5x5 ***
Turn = 0.
  01234
0 .....
1 h...r
2 .....
3 ..tr.
4 ..ft.

Turn = 4.
  01234
0 ..r..
1 .....
2 .....
3 ..tr.
4 h.t.r

Turn = 8.
  01234
0 r....
1 .....
2 .....
3 ..tt.
4 h.tt.

Turn = 12.
  01234
0 .....
1 .....
2 .....
3 r.tt.
4 h.tt.

Turn = 16.
  01234
0 .....
1 .....
2 r....
3 ..tt.
4 .rtt.

Turn = 20.
  01234
0 r....
1 ...r.
2 ..r..
3 .....
4 .ttt.

*** Darwin 6x7 ***
Turn = 0.
  0123456
0 .......
1 .......
2 ..t....
3 .......
4 ....r..
5 rt...tr

Turn = 5.
  0123456
0 r...r.r
1 .......
2 ..t....
3 .......
4 .......
5 .t...t.

Turn = 10.
  0123456
0 .......
1 r......
2 ..t....
3 .....rr
4 .......
5 .t...t.

Turn = 15.
  0123456
0 .......
1 .......
2 ..t....
3 .....r.
4 ...r...
5 tt..r..

Turn = 20.
  0123456
0 ......r
1 .......
2 ..t....
3 r......
4 .......
5 ttt....

*** Darwin 6x5 ***
Turn = 0.
  01234
0 .....
1 .r...
2 .h...
3 .r...
4 h.h..
5 h...f

Turn = 5.
  01234
0 r....
1 h....
2 h...r
3 .....
4 h....
5 .r..f

Turn = 10.
  01234
0 h..rr
1 h....
2 .....
3 .....
4 r....
5 r...f

Turn = 15.
  01234
0 rr...
1 h....
2 .....
3 .....
4 ....r
5 .r.rr

Turn = 20.
  01234
0 rr.r.
1 ..r..
2 ...r.
3 .....
4 r....
5 ....r

*** Darwin 4x4 ***
Turn = 0.
  0123
0 ..r.
1 ..rf
2 ..h.
3 ff.h

Turn = 4.
  0123
0 r...
1 ..r.
2 ...r
3 ffrr

Turn = 8.
  0123
0 ....
1 r..r
2 r...
3 rfrr

Turn = 12.
  0123
0 r..r
1 ..r.
2 .r.r
3 .fr.

Turn = 16.
  0123
0 rrrr
1 ....
2 ....
3 rr.r

Turn = 20.
  0123
0 r...
1 r.r.
2 r...
3 rrr.

*** Darwin 5x6 ***
Turn = 0.
  012345
0 ..rt.f
1 f.....
2 ......
3 rrf...
4 .....r

Turn = 6.
  012345
0 r...r.
1 r....r
2 ..r..r
3 rr....
4 ......

Turn = 12.
  012345
0 ....rr
1 ...r..
2 rr...r
3 r.r...
4 ......

Turn = 18.
  012345
0 rr....
1 r.....
2 .r...r
3 r.....
4 r...r.

*** Darwin 7x8 ***
Turn = 0.
  01234567
0 ...h..r.
1 .t......
2 ......r.
3 ....r..t
4 .t......
5 ........
6 h.......

Turn = 5.
  01234567
0 h.......
1 .t......
2 .r......
3 .......t
4 .t......
5 ......r.
6 h..r....

Turn = 10.
  01234567
0 h.......
1 .t......
2 .t......
3 .......t
4 .t......
5 rr......
6 .......r

Turn = 15.
  01234567
0 r.......
1 rt......
2 .t......
3 .......t
4 r...r...
5 ........
6 ..r.....

Turn = 20.
  01234567
0 ...r....
1 tt......
2 tt......
3 .......r
4 r......r
5 ........
6 ........

*** Darwin 7x7 ***
Turn = 0.
  0123456
0 .h.....
1 .fr....
2 h...r..
3 ......h
4 t......
5 r......
6 ..r....

Turn = 4.
  0123456
0 .h....r
1 .f.....
2 ......r
3 t......
4 t......
5 t.r....
6 t......

Turn = 8.
  0123456
0 .hr....
1 .f.....
2 .......
3 t......
4 t......
5 t......
6 rr....r

Turn = 12.
  0123456
0 .r.....
1 ....r..
2 .r.....
3 t......
4 t......
5 t......
6 tt.r...

Turn = 16.
  0123456
0 .......
1 .......
2 t.....r
3 tt.....
4 t......
5 t......
6 ttt....

Turn = 20.
  0123456
0 .......
1 .......
2 t......
3 tt.....
4 t......
5 t......
6 ttt...r

*** Darwin 4x4 ***
Turn = 0.
  0123
0 hff.
1 .r..
2 t.rr
3 ft..

Turn = 5.
  0123
0 hff.
1 ....
2 r..t
3 rrtt

Turn = 10.
  0123
0 rrf.
1 r.r.
2 ..rt
3 ..rt

Turn = 15.
  0123
0 rrr.
1 ..rr
2 ..rr
3 r..r

Turn = 20.
  0123
0 ..rr
1 ..rr
2 r..r
3 rrr.

*** Darwin 6x7 ***
Turn = 0.
  0123456
0 ..t...t
1 ....r..
2 ...hht.
3 rr...f.
4 ..r....
5 .......

Turn = 4.
  0123456
0 rttrr.t
1 ....h..
2 .....t.
3 r....t.
4 .......
5 .......

Turn = 8.
  0123456
0 rrtthr.
1 r.....r
2 .....t.
3 .....t.
4 .......
5 .......

Turn = 12.
  0123456
0 .tttt..
1 r...r..
2 ......r
3 .....t.
4 r......
5 ......r

Turn = 16.
  0123456
0 .tttt..
1 r......
2 .......
3 .....t.
4 .....r.
5 r.r...r

Turn = 20.
  0123456
0 rrttt..
1 .......
2 .......
3 .....tr
4 .r.....
5 ...r..r

*** Darwin 6x7 ***
Turn = 0.
  0123456
0 h......
1 ......r
2 h..r..t
3 hr.....
4 .t.....
5 th.....

Turn = 6.
  0123456
0 ..r....
1 .r....r
2 ......r
3 h....h.
4 tt.....
5 tt.....

Turn = 12.
  0123456
0 r.....r
1 r......
2 .......
3 t.....h
4 tr...r.
5 rr.....

Turn = 18.
  0123456
0 .rr....
1 ......r
2 .......
3 .r..r.r
4 r......
5 rr..r..

*** Darwin 6x5 ***
Turn = 0.
  01234
0 ..t.t
1 ..ftf
2 .t.r.
3 t...h
4 .f...
5 ....t

Turn = 6.
  01234
0 ..t.t
1 r.ttt
2 .....
3 ttt..
4 .t...
5 ....t

Turn = 12.
  01234
0 .tt.t
1 ..ttt
2 .....
3 ttt..
4 .t...
5 ....t

Turn = 18.
  01234
0 .tt.t
1 ..ttt
2 .....
3 ttt..
4 .t...
5 ....t

*** Darwin 4x3 ***
Turn = 0.
  012
0 f.h
1 ttf
2 ffr
3 ttt

Turn = 5.
  012
0 t.t
1 ttt
2 ttt
3 ttt

Turn = 10.
  012
0 t.t
1 ttt
2 ttt
3 ttt

Turn = 15.
  012
0 t.t
1 ttt
2 ttt
3 ttt

Turn = 20.
  012
0 t.t
1 ttt
2 ttt
3 ttt
